Food Markets in New York
…
Now I can get a data frame easily.

(mkts_df <- food_mkts %>% 
    map_df(safe_extract, to_process))
#> # A tibble: 28,355 x 22
#>      sid id    position created_at created_meta updated_at updated_meta meta 
#>    <int> <chr>    <int>      <int> <chr>             <int> <chr>        <chr>
#>  1     1 D943…        1 1412261567 707400       1412262737 708543       "{\n…
#>  2     2 7A06…        2 1412261567 707400       1412262426 708543       "{\n…
#>  3     3 68DB…        3 1412261567 707400       1412262278 708543       "{\n…
#>  4     4 9DA5…        4 1412261567 707400       1412262565 708543       "{\n…
#>  5     5 5D62…        5 1412261567 707400       1412262177 708543       "{\n…
#>  6     6 86BC…        6 1412261567 707400       1412262499 708543       "{\n…
#>  7     7 51EE…        7 1412261567 707400       1412262135 708543       "{\n…
#>  8     8 22B1…        8 1412261567 707400       1412261937 708543       "{\n…
#>  9     9 6252…        9 1412261567 707400       1412262213 708543       "{\n…
#> 10    10 1315…       10 1412261567 707400       1412261871 708543       "{\n…
#> # … with 28,345 more rows, and 14 more variables: County <chr>, `License
#> #   Number` <chr>, `Operation Type` <chr>, `Estab Type` <chr>, `Entity
#> #   Name` <chr>, `DBA Name` <chr>, `Street Number` <chr>, `Street Name` <chr>,
#> #   `Address Line 2` <chr>, `Address Line 3` <chr>, City <chr>, State <chr>,
#> #   `Zip Code` <chr>, `Square Footage` <chr>
…
Good news: there’s a built-in way to handle explicit NULLs.

Bad news: we need to specify type for each of the 22 variables.

¯\_(ツ)_/¯ news: we get to use more exotic features of purrr.

Here’s a naïve approach for two variables:

food_mkts %>% {
  tibble(
    dba_name = map_chr(., "DBA Name"),
    city = map_chr(., "City")
  )
}
#> # A tibble: 28,355 x 2
#>    dba_name                  city                
#>    <chr>                     <chr>               
#>  1 "PLAZA 23 TRUCK STOP    " "ALBANY            "
#>  2 "PRICE CHOPPER #245     " "WATERVLIET        "
#>  3 "PEACOCK                " "ALBANY            "
#>  4 "FINYOUR FISHMONGER     " "GUILDERLAND       "
#>  5 "R&A GROCERY STORE      " "ALBANY            "
#>  6 "ANTHONYS CHOC DIP FRUIT" "ALBANY            "
#>  7 "DOLLAR TREE #4168      " "GLENMONT          "
#>  8 "GREAT WALL EXPRESS ASIA" "SLINGERLANDS      "
#>  9 "INANC I OZBAY          " "ALBANY            "
#> 10 "SAGAMIA                " "SLINGERLANDS      "
#> # … with 28,345 more rows

Doing this for 22 variables is a drag, though it’s certainly possible, and even reasonable for the ingest of an important dataset.

However, because I can, I store the type of each variable and do extraction + type conversion programmatically. This lets us explore more of the functional programming side of purrr.

I exploit the variable types learned from the automatic type conversion in the “rows first” approach. Here’s a data frame with one row per variable, providing the expected class and the type-appropriate map_*() and NA. It will soon become clear why I use the specific variable names, .f and .null.

(vdf <- mkts_df %>% 
   map_chr(class) %>%
   enframe(name = ".f", value = "type") %>% 
   mutate(vname = .f %>% tolower() %>% gsub("\\s+", "_", .),
          mapper = c(integer = "map_int", character = "map_chr")[type],
          .null = list(integer = NA_integer_,
                       character = NA_character_)[type]))
#> # A tibble: 22 x 5
#>    .f             type      vname          mapper  .null       
#>    <chr>          <chr>     <chr>          <chr>   <named list>
#>  1 sid            integer   sid            map_int <int [1]>   
#>  2 id             character id             map_chr <chr [1]>   
#>  3 position       integer   position       map_int <int [1]>   
#>  4 created_at     integer   created_at     map_int <int [1]>   
#>  5 created_meta   character created_meta   map_chr <chr [1]>   
#>  6 updated_at     integer   updated_at     map_int <int [1]>   
#>  7 updated_meta   character updated_meta   map_chr <chr [1]>   
#>  8 meta           character meta           map_chr <chr [1]>   
#>  9 County         character county         map_chr <chr [1]>   
#> 10 License Number character license_number map_chr <chr [1]>   
#> # … with 12 more rows
…
do.call() is a base R function that constructs and executes a function call from a function (name or actual function) and a list of arguments. It’s exactly what we need. But we also want to do this for each of the 22 variables.

How to scale up? We use the invoke() family of functions in purrr. invoke() itself is a pipe-friendly wrapper around do.call(). invoke_map() and friends allow you to map over functions and arguments in parallel, analagous to map2(). The big difference with invoke_map() is that the two primary inputs are a vector of functions and a vector of argument values. We use invoke_map_df() here, which is the variant that requests to get a data frame back.

(mkts_df <- invoke_map_df(.f = set_names(vdf$mapper, vdf$vname),
                          .x = transpose(vdf[c(".f", ".null")]),
                          food_mkts))
#> # A tibble: 28,355 x 22
#>      sid id    position created_at created_meta updated_at updated_meta meta 
#>    <int> <chr>    <int>      <int> <chr>             <int> <chr>        <chr>
#>  1     1 D943…        1 1412261567 707400       1412262737 708543       "{\n…
#>  2     2 7A06…        2 1412261567 707400       1412262426 708543       "{\n…
#>  3     3 68DB…        3 1412261567 707400       1412262278 708543       "{\n…
#>  4     4 9DA5…        4 1412261567 707400       1412262565 708543       "{\n…
#>  5     5 5D62…        5 1412261567 707400       1412262177 708543       "{\n…
#>  6     6 86BC…        6 1412261567 707400       1412262499 708543       "{\n…
#>  7     7 51EE…        7 1412261567 707400       1412262135 708543       "{\n…
#>  8     8 22B1…        8 1412261567 707400       1412261937 708543       "{\n…
#>  9     9 6252…        9 1412261567 707400       1412262213 708543       "{\n…
#> 10    10 1315…       10 1412261567 707400       1412261871 708543       "{\n…
#> # … with 28,345 more rows, and 14 more variables: county <chr>,
#> #   license_number <chr>, operation_type <chr>, estab_type <chr>,
#> #   entity_name <chr>, dba_name <chr>, street_number <chr>, street_name <chr>,
#> #   address_line_2 <chr>, address_line_3 <chr>, city <chr>, state <chr>,
#> #   zip_code <chr>, square_footage <chr>
…
Put everything together

Column bind the main data frame mkts_df with the human address data in ha and everything else from Location.

(mkts_df <- bind_cols(mkts_df, ha, ee))
#> # A tibble: 28,355 x 30
#>      sid id    position created_at created_meta updated_at updated_meta meta 
#>    <int> <chr>    <int>      <int> <chr>             <int> <chr>        <chr>
#>  1     1 D943…        1 1412261567 707400       1412262737 708543       "{\n…
#>  2     2 7A06…        2 1412261567 707400       1412262426 708543       "{\n…
#>  3     3 68DB…        3 1412261567 707400       1412262278 708543       "{\n…
#>  4     4 9DA5…        4 1412261567 707400       1412262565 708543       "{\n…
#>  5     5 5D62…        5 1412261567 707400       1412262177 708543       "{\n…
#>  6     6 86BC…        6 1412261567 707400       1412262499 708543       "{\n…
#>  7     7 51EE…        7 1412261567 707400       1412262135 708543       "{\n…
#>  8     8 22B1…        8 1412261567 707400       1412261937 708543       "{\n…
#>  9     9 6252…        9 1412261567 707400       1412262213 708543       "{\n…
#> 10    10 1315…       10 1412261567 707400       1412261871 708543       "{\n…
#> # … with 28,345 more rows, and 22 more variables: county <chr>,
#> #   license_number <chr>, operation_type <chr>, estab_type <chr>,
#> #   entity_name <chr>, dba_name <chr>, street_number <chr>, street_name <chr>,
#> #   address_line_2 <chr>, address_line_3 <chr>, city <chr>, state <chr>,
#> #   zip_code <chr>, square_footage <chr>, ha_address <chr>, ha_city <chr>,
#> #   ha_state <chr>, ha_zip <chr>, latitude <dbl>, longitude <dbl>,
#> #   machine_address <lgl>, needs_recoding <lgl>

Trim any leading/trailing whitespace from the character variables.

mkts_df <- mkts_df %>% 
  mutate_if(is.character, trimws)

Take a look at some of the most interpretable variables.

mkts_df %>% 
  select(dba_name, city, latitude, longitude, square_footage)
#> # A tibble: 28,355 x 5
#>    dba_name                city         latitude longitude square_footage
#>    <chr>                   <chr>           <dbl>     <dbl> <chr>         
#>  1 PLAZA 23 TRUCK STOP     ALBANY           42.6     -73.8 3600          
#>  2 PRICE CHOPPER #245      WATERVLIET       42.7     -73.7 0             
#>  3 PEACOCK                 ALBANY           42.7     -73.7 2000          
#>  4 FINYOUR FISHMONGER      GUILDERLAND      42.7     -73.9 2100          
#>  5 R&A GROCERY STORE       ALBANY           42.7     -73.8 1500          
#>  6 ANTHONYS CHOC DIP FRUIT ALBANY           42.7     -73.8 0             
#>  7 DOLLAR TREE #4168       GLENMONT         42.6     -73.8 10000         
#>  8 GREAT WALL EXPRESS ASIA SLINGERLANDS     42.6     -73.9 0             
#>  9 INANC I OZBAY           ALBANY           42.7     -73.8 0             
#> 10 SAGAMIA                 SLINGERLANDS     42.6     -73.9 1000          
#> # … with 28,345 more rows
